Tarea2/cajero.vcd
$date
	Fri Sep 26 23:38:08 2025
$end
$version
	Icarus Verilog
$end
$timescale
	1s
$end
$scope module Testbench $end
$var wire 3 ! estado [2:0] $end
$var wire 2 " cantidad_digitos [1:0] $end
$var wire 1 # TIPO_TRANS $end
$var wire 1 $ TARJETA_RECIBIDA $end
$var wire 1 % RESET $end
$var wire 1 & PIN_INCORRECTO $end
$var wire 16 ' PIN_CORRECTO [15:0] $end
$var wire 16 ( PIN_ACTUAL [15:0] $end
$var wire 1 ) MONTO_STB $end
$var wire 32 * MONTO [31:0] $end
$var wire 1 + FONDOS_INSUFICIENTES $end
$var wire 1 , ENTREGAR_DINERO $end
$var wire 1 - DIGITO_STB $end
$var wire 4 . DIGITO [3:0] $end
$var wire 1 / CLK $end
$var wire 1 0 BLOQUEO $end
$var wire 1 1 BALANCE_STB $end
$var wire 64 2 BALANCE_INICIAL [63:0] $end
$var wire 64 3 BALANCE_ACTUALIZADO [63:0] $end
$var wire 1 4 ADVERTENCIA $end
$scope module dut $end
$var wire 1 # TIPO_TRANS $end
$var wire 1 $ TARJETA_RECIBIDA $end
$var wire 1 % RESET $end
$var wire 16 5 PIN_CORRECTO [15:0] $end
$var wire 1 ) MONTO_STB $end
$var wire 32 6 MONTO [31:0] $end
$var wire 1 - DIGITO_STB $end
$var wire 4 7 DIGITO [3:0] $end
$var wire 1 / CLK $end
$var wire 64 8 BALANCE_INICIAL [63:0] $end
$var reg 1 4 ADVERTENCIA $end
$var reg 64 9 BALANCE_ACTUALIZADO [63:0] $end
$var reg 1 1 BALANCE_STB $end
$var reg 1 0 BLOQUEO $end
$var reg 1 , ENTREGAR_DINERO $end
$var reg 1 + FONDOS_INSUFICIENTES $end
$var reg 16 : PIN_ACTUAL [15:0] $end
$var reg 1 & PIN_INCORRECTO $end
$var reg 2 ; cantidad_digitos [1:0] $end
$var reg 3 < estado [2:0] $end
$var reg 2 = intentos_fallidos [1:0] $end
$upscope $end
$scope module test $end
$var reg 64 > BALANCE_INICIAL [63:0] $end
$var reg 1 / CLK $end
$var reg 4 ? DIGITO [3:0] $end
$var reg 1 - DIGITO_STB $end
$var reg 32 @ MONTO [31:0] $end
$var reg 1 ) MONTO_STB $end
$var reg 16 A PIN_CORRECTO [15:0] $end
$var reg 1 % RESET $end
$var reg 1 $ TARJETA_RECIBIDA $end
$var reg 1 # TIPO_TRANS $end
$upscope $end
$upscope $end
$enddefinitions $end
#0
$dumpvars
b11010101100110 A
b0 @
b0 ?
b0 >
bx =
bx <
bx ;
bx :
bx 9
b0 8
b0 7
b0 6
b11010101100110 5
x4
bx 3
b0 2
x1
x0
0/
b0 .
0-
x,
x+
b0 *
0)
bx (
b11010101100110 '
x&
0%
0$
0#
bx "
bx !
$end
#2
b0 3
b0 9
0,
0+
01
00
04
0&
b0 =
b0 (
b0 :
b0 "
b0 ;
b0 !
b0 <
1/
#4
0/
#6
1/
#8
0/
1%
#10
1/
#12
0/
1$
#14
b1 !
b1 <
1/
#16
0/
#18
1/
#20
0/
#22
1/
#24
0/
#26
1/
#28
0/
#30
1/
#32
0/
0$
#34
1/
#36
0/
b11 .
b11 7
b11 ?
#37
1-
#38
b1 "
b1 ;
b11000000000000 (
b11000000000000 :
1/
#40
0/
0-
#42
1/
#44
0/
b101 .
b101 7
b101 ?
#45
1-
#46
b10 "
b10 ;
b11010100000000 (
b11010100000000 :
1/
#48
0/
0-
#50
1/
#52
0/
b110 .
b110 7
b110 ?
#53
1-
#54
b11 "
b11 ;
b11010101100000 (
b11010101100000 :
1/
#56
0/
0-
#58
1/
#60
0/
#61
1-
#62
b10 !
b10 <
b0 "
b0 ;
b11010101100110 (
b11010101100110 :
1/
#64
0/
0-
#66
b11 !
b11 <
1/
#68
0/
#70
b100 !
b100 <
1/
b10011100010000 *
b10011100010000 6
b10011100010000 @
#72
0/
1)
#74
b110 !
b110 <
11
b10011100010000 3
b10011100010000 9
1/
#76
0/
0)
#78
01
b0 !
b0 <
b0 (
b0 :
1/
#80
0/
1$
#82
b1 !
b1 <
1/
#84
0/
#86
1/
#88
0/
#90
1/
#92
0/
#94
1/
#96
0/
#98
1/
#100
0/
0$
#102
1/
#104
0/
b11 .
b11 7
b11 ?
#106
1/
#108
0/
1-
#110
b1 "
b1 ;
b11000000000000 (
b11000000000000 :
1/
#112
0/
0-
#114
1/
#116
0/
b101 .
b101 7
b101 ?
#118
1/
#120
0/
1-
#122
b10 "
b10 ;
b11010100000000 (
b11010100000000 :
1/
#124
0/
0-
#126
1/
#128
0/
b110 .
b110 7
b110 ?
#130
1/
#132
0/
1-
#134
b11 "
b11 ;
b11010101100000 (
b11010101100000 :
1/
#136
0/
0-
#138
1/
#140
0/
#142
1/
#144
0/
1-
#146
b10 !
b10 <
b0 "
b0 ;
b11010101100110 (
b11010101100110 :
1/
#148
0/
0-
#150
b11 !
b11 <
1/
#152
0/
1#
#154
b101 !
b101 <
1/
#156
0/
b1101101011000 *
b1101101011000 6
b1101101011000 @
#158
1/
#160
0/
1)
#162
b110 !
b110 <
1,
11
b101110111000 3
b101110111000 9
1/
#164
0/
0)
#166
0,
01
b0 !
b0 <
b0 (
b0 :
1/
#168
0/
1$
#170
b1 !
b1 <
1/
#172
0/
#174
1/
#176
0/
#178
1/
#180
0/
#182
1/
#184
0/
#186
1/
#188
0/
0$
#190
1/
#192
0/
b11 .
b11 7
b11 ?
#194
1/
#196
0/
1-
#198
b1 "
b1 ;
b11000000000000 (
b11000000000000 :
1/
#200
0/
0-
#202
1/
#204
0/
b101 .
b101 7
b101 ?
#206
1/
#208
0/
1-
#210
b10 "
b10 ;
b11010100000000 (
b11010100000000 :
1/
#212
0/
0-
#214
1/
#216
0/
b110 .
b110 7
b110 ?
#218
1/
#220
0/
1-
#222
b11 "
b11 ;
b11010101100000 (
b11010101100000 :
1/
#224
0/
0-
#226
1/
#228
0/
b1 .
b1 7
b1 ?
#230
1/
#232
0/
1-
#234
b10 !
b10 <
b0 "
b0 ;
b11010101100001 (
b11010101100001 :
1/
#236
0/
0-
#238
b1 !
b1 <
b1 =
1/
#240
0/
#242
1&
1/
#244
0/
1-
#246
b1 "
b1 ;
b1010101100001 (
b1010101100001 :
1/
#248
0/
0-
#250
1/
#252
0/
#254
1/
#256
0/
1-
#258
b10 "
b10 ;
b1000101100001 (
b1000101100001 :
1/
#260
0/
0-
#262
1/
#264
0/
#266
1/
#268
0/
1-
#270
b11 "
b11 ;
b1000100010001 (
b1000100010001 :
1/
#272
0/
0-
#274
1/
#276
0/
#278
1/
#280
0/
1-
#282
b10 !
b10 <
b0 "
b0 ;
1/
#284
0/
0-
#286
b1 !
b1 <
b10 =
1/
#288
0/
#290
0&
14
1/
#292
0/
1-
#294
b1 "
b1 ;
1/
#296
0/
0-
#298
1/
#300
0/
b101 .
b101 7
b101 ?
#302
1/
#304
0/
1-
#306
b10 "
b10 ;
b1010100010001 (
b1010100010001 :
1/
#308
0/
0-
#310
1/
#312
0/
b11 .
b11 7
b11 ?
#314
1/
#316
0/
1-
#318
b11 "
b11 ;
b1010100110001 (
b1010100110001 :
1/
#320
0/
0-
#322
1/
#324
0/
b100 .
b100 7
b100 ?
#326
1/
#328
0/
1-
#330
b10 !
b10 <
b0 "
b0 ;
b1010100110100 (
b1010100110100 :
1/
#332
0/
0-
#334
b1 !
b1 <
b11 =
1/
#336
0/
#338
b111 !
b111 <
10
04
1/
#340
0/
#342
1/
#344
0/
#346
1/
#348
0/
#350
1/
#352
0/
0%
#354
b0 3
b0 9
00
b0 =
b0 (
b0 :
b0 !
b0 <
1/
#356
0/
#358
1/
#360
0/
1%
#362
1/
#364
0/
#366
1/
#368
0/
#370
b1 !
b1 <
1/
1$
#372
0/
#374
1/
#376
0/
#378
1/
#380
0/
#382
1/
#384
0/
#386
1/
#388
0/
#390
1/
0$
#392
0/
#394
1/
b11 .
b11 7
b11 ?
#396
0/
#398
b1 "
b1 ;
b11000000000000 (
b11000000000000 :
1/
1-
#400
0/
#402
1/
0-
#404
0/
#406
1/
b101 .
b101 7
b101 ?
#408
0/
#410
b10 "
b10 ;
b11010100000000 (
b11010100000000 :
1/
1-
#412
0/
#414
1/
0-
#416
0/
#418
1/
b110 .
b110 7
b110 ?
#420
0/
#422
b11 "
b11 ;
b11010101100000 (
b11010101100000 :
1/
1-
#424
0/
#426
1/
0-
#428
0/
#430
1/
#432
0/
#434
b10 !
b10 <
b0 "
b0 ;
b11010101100110 (
b11010101100110 :
1/
1-
#436
0/
#438
b11 !
b11 <
1/
0-
#440
0/
#442
b101 !
b101 <
1/
#444
0/
#446
1/
b11011011101110100000 *
b11011011101110100000 6
b11011011101110100000 @
#448
0/
#450
b110 !
b110 <
11
1+
1/
1)
#452
0/
#454
0+
01
b0 !
b0 <
b0 (
b0 :
1/
0)
